Suite/Test/Step Name,Browser,Description,Start time,End time,Duration,Status
mytestsuite,,,2018-08-28 15:25:58,2018-08-28 15:26:01,2.557s,FAILED
,,,,,,
Test Cases/verifycreateuser,,,2018-08-28 15:25:59,2018-08-28 15:26:01,1.826s,FAILED
Statement - output = com.kms.katalon.core.webservice.keyword.WSBuiltInKeywords.sendRequest(com.kms.katalon.core.testobject.ObjectRepository.findTestObject(createuser)),,,2018-08-28 15:25:59,2018-08-28 15:26:01,1.245s,PASSED
verifyResponseStatusCode,,,2018-08-28 15:26:01,2018-08-28 15:26:01,0.056s,FAILED
