Suite/Test/Step Name,Browser,Description,Start time,End time,Duration,Status
GlobalTestSuite,,,2018-08-31 11:32:22,2018-08-31 11:32:26,3.979s,PASSED
,,,,,,
Test Cases/verifycreateuser,,,2018-08-31 11:32:23,2018-08-31 11:32:25,2.820s,PASSED
comment,,,2018-08-31 11:32:24,2018-08-31 11:32:24,0.155s,PASSED
"Statement - request = com.kms.katalon.core.testobject.ObjectRepository.findTestObject(createuser, [name:internal.GlobalVariable.username, uid:internal.GlobalVariable.uid, puid:internal.GlobalVariable.parent_uid])",,,2018-08-31 11:32:24,2018-08-31 11:32:24,0.101s,PASSED
Statement - output = com.kms.katalon.core.webservice.keyword.WSBuiltInKeywords.sendRequest(request),,,2018-08-31 11:32:24,2018-08-31 11:32:25,1.385s,PASSED
"Statement - requestHeader = """"",,,2018-08-31 11:32:25,2018-08-31 11:32:25,0.002s,PASSED
Statement - listIterator = request.getHttpHeaderProperties().listIterator(),,,2018-08-31 11:32:25,2018-08-31 11:32:25,0.069s,PASSED
Statement - While (listIterator.hasNext()),,,2018-08-31 11:32:25,2018-08-31 11:32:25,0.037s,PASSED
comment,,,2018-08-31 11:32:25,2018-08-31 11:32:25,0.007s,PASSED
verifyResponseStatusCode,,,2018-08-31 11:32:25,2018-08-31 11:32:25,0.043s,PASSED
verifyElementPropertyValue,,,2018-08-31 11:32:25,2018-08-31 11:32:25,0.056s,PASSED
verifyElementPropertyValue,,,2018-08-31 11:32:25,2018-08-31 11:32:25,0.026s,PASSED
